r311: An R interface to the open311 standard
…
It can thus be difficult to manage the multitude of endpoints and
jurisdictions. Efforts have been made to list open311 servers, but most
of them are incomplete or outdated. r311 offers an updated
and modifiable endpoint list that defines a number of open311
implementations that are defined for use in the package. The list can be
read using o311_endpoints.

o311_endpoints()
#> # A tibble: 67 × 9
#>    name            root  docs  jurisdiction key   pagination limit json  dialect
#>    <chr>           <chr> <chr> <chr>        <lgl> <lgl>      <int> <lgl> <chr>  
#>  1 Annaberg-Buchh… http… http… annberg-buc… FALSE TRUE          50 TRUE  Mark-a…
#>  2 Bloomington, IN http… <NA>  bloomington… FALSE TRUE        1000 TRUE  uReport
#>  3 Bonn, DE        http… http… bonn.de      FALSE TRUE         100 TRUE  Mark-a…
#>  4 Boston, MA      http… http… <NA>         FALSE TRUE          50 TRUE  Connec…
#>  5 Brookline, MA   http… http… brooklinema… FALSE TRUE          50 TRUE  Connec…
#>  6 Austin, TX      http… http… <NA>         FALSE TRUE          50 TRUE  Connec…
#>  7 Chicago, IL     http… http… cityofchica… FALSE TRUE          50 TRUE  Connec…
#>  8 Newport News, … http… http… cityofnewpo… FALSE TRUE          50 TRUE  Connec…
#>  9 San Diego, CA   http… http… sandiego.gov FALSE TRUE          50 TRUE  Connec…
#> 10 Köln / Cologne… http… <NA>  stadt-koeln… FALSE TRUE          50 TRUE  Mark-a…
#> # ℹ 57 more rows
…
Making requests

After selecting an API and attaching it to the session, all functions
can access it. You can now make requests.

Services

To get an overview of the available services in a jurisdiction, you
can use o311_services, which returns a list of Rostock’s
administrative services.

o311_services()
#> # A tibble: 161 × 8
#>    service_code service_name  description metadata type  keywords group group_id
#>    <chr>        <chr>         <lgl>       <lgl>    <chr> <chr>    <chr>    <int>
#>  1 86           Ampel behind… NA          FALSE    real… idea     Barr…      115
#>  2 87           Ampelschaltu… NA          FALSE    real… idea     Barr…      115
#>  3 88           Bordstein ab… NA          FALSE    real… idea     Barr…      115
#>  4 89           Zugang rolls… NA          FALSE    real… idea     Barr…      115
#>  5 90           Ampelschaltu… NA          FALSE    real… idea     Fahr…      120
#>  6 91           Beleuchtung … NA          FALSE    real… idea     Fahr…      120
#>  7 92           Beschilderun… NA          FALSE    real… idea     Fahr…      120
#>  8 93           Beschilderun… NA          FALSE    real… idea     Fahr…      120
#>  9 94           Bordstein ab… NA          FALSE    real… idea     Fahr…      120
#> 10 95           Fahrradständ… NA          FALSE    real… idea     Fahr…      120
#> # ℹ 151 more rows
…
o311_api("Rostock, DE")
o311_request_all(max_pages = 2)
#> Simple feature collection with 4268 features and 15 fields
#> Geometry type: POINT
#> Dimension:     XY
#> Bounding box:  xmin: 12.01306 ymin: 54.05571 xmax: 12.20568 ymax: 54.20905
#> Geodetic CRS:  WGS 84
#> # A tibble: 4,268 × 16
#>    service_request_id status_notes  status service_code service_name description
#>                 <int> <chr>         <chr>         <int> <chr>        <chr>      
#>  1              24824 ""            in_pr…          113 Beschilderu… Kreuzung A…
#>  2              95322 "Danke für I… in_pr…            2 bauliche Ge… Gefährlich…
#>  3              70677  <NA>         recei…            2 bauliche Ge… redaktione…
#>  4              72069  <NA>         recei…           22 Sperrmüll    redaktione…
#>  5              72070  <NA>         recei…           15 Elektroschr… redaktione…
#>  6              70740  <NA>         revie…           22 Sperrmüll    Die 1.Meld…
#>  7              70076  <NA>         closed          160 Altfahrzeug… <NA>       
#>  8              75356  <NA>         recei…           17 Hausmüll     redaktione…
#>  9              43518 "Der Erdhauf… in_pr…           13 Bauabfall    Illegale E…
#> 10              44333  <NA>         recei…            2 bauliche Ge… redaktione…
#> # ℹ 4,258 more rows
#> # ℹ 10 more variables: agency_responsible <chr>, service_notice <lgl>,
#> #   requested_datetime <chr>, updated_datetime <chr>, expected_datetime <chr>,
#> #   address <chr>, adress_id <lgl>, media_url <chr>, zipcode <lgl>,
#> #   geometry <POINT [°]>
…
