…
Load the package:


``` r
library(r311)
```


``` r
o311_endpoints()
#> # A tibble: 69 × 12
#>    name      root  docs  jurisdiction key   pagination limit json  dialect deprecated deprecated_reason deprecated_url
#>    <chr>     <chr> <chr> <chr>        <lgl> <lgl>      <int> <lgl> <chr>   <lgl>      <chr>             <chr>         
#>  1 Annaberg… http… http… annberg-buc… FALSE TRUE          50 TRUE  Mark-a… TRUE       switched          https://buerg…
#>  2 Blooming… http… <NA>  bloomington… FALSE TRUE        1000 TRUE  uReport FALSE      <NA>              <NA>          
#>  3 Bonn, DE  http… http… bonn.de      FALSE TRUE         100 TRUE  Mark-a… FALSE      <NA>              <NA>          
#>  4 Boston, … http… http… <NA>         FALSE TRUE          50 TRUE  Connec… FALSE      <NA>              <NA>          
#>  5 Brooklin… http… http… brooklinema… FALSE TRUE          50 TRUE  Connec… FALSE      <NA>              <NA>          
#>  6 Austin, … http… http… <NA>         FALSE TRUE          50 TRUE  Connec… FALSE      <NA>              <NA>          
#>  7 Chicago,… 311a… 311a… cityofchica… FALSE TRUE          50 TRUE  Connec… FALSE      <NA>              <NA>          
#>  8 Newport … http… http… cityofnewpo… FALSE TRUE          50 TRUE  Connec… FALSE      <NA>              <NA>          
#>  9 San Dieg… http… http… sandiego.gov FALSE TRUE          50 TRUE  Connec… FALSE      <NA>              <NA>          
#> 10 Köln / C… http… <NA>  stadt-koeln… FALSE TRUE          50 TRUE  Mark-a… FALSE      <NA>              <NA>          
#> # ℹ 59 more rows
```
…
# Making requests

After selecting an API and attaching it to the session, all \code{o311_*}
functions can access it. You can now make requests.

## Services

To get an overview of the available services in a jurisdiction, you can
use `o311_services`, which returns a list of Rostock's administrative
services.


``` r
o311_services()
#> # A tibble: 183 × 8
#>    service_code service_name                       description metadata type     keywords group            group_id
#>    <chr>        <chr>                              <lgl>       <lgl>    <chr>    <chr>    <chr>               <int>
#>  1 127          Ampel behindertengerecht gestalten NA          FALSE    realtime idea     Barrierefreiheit       11
#>  2 128          Ampelschaltung ändern              NA          FALSE    realtime idea     Barrierefreiheit       11
#>  3 129          Bordstein absenken                 NA          FALSE    realtime idea     Barrierefreiheit       11
#>  4 130          Zugang rollstuhlgerecht gestalten  NA          FALSE    realtime idea     Barrierefreiheit       11
#>  5 131          Ampelschaltung ändern              NA          FALSE    realtime idea     Fahrradverkehr         12
#>  6 132          Beleuchtung verändern              NA          FALSE    realtime idea     Fahrradverkehr         12
#>  7 133          Beschilderung/Markierung ändern    NA          FALSE    realtime idea     Fahrradverkehr         12
#>  8 134          Beschilderung/Markierung einführen NA          FALSE    realtime idea     Fahrradverkehr         12
#>  9 135          Bordstein absenken                 NA          FALSE    realtime idea     Fahrradverkehr         12
#> 10 136          Fahrradständer aufstellen          NA          FALSE    realtime idea     Fahrradverkehr         12
#> # ℹ 173 more rows
```


## Requests

To get data about civic issues in the city area, run `o311_requests`.


``` r
o311_requests()
#> Simple feature collection with 50 features and 15 fields
#> Geometry type: POINT
#> Dimension:     XY
#> Bounding box:  xmin: 11.36877 ymin: 53.38495 xmax: 13.31174 ymax: 54.20873
#> Geodetic CRS:  WGS 84
#> # A tibble: 50 × 16
#>    service_request_id status_notes      status service_code service_name description agency_responsible service_notice
#>                 <int> <chr>             <chr>         <int> <chr>        <chr>       <chr>              <lgl>         
#>  1                132 <NA>              revie…          129 Bordstein a… "testidee"  Landkreis MSE      NA            
#>  2                163 <NA>              revie…            2 Papierkorb/… "Der Papie… Beschwerdemanagem… NA            
#>  3                251 <NA>              recei…            3 Ampel schad… "redaktion… LK-LUP-Verkehr     NA            
#>  4                285 <NA>              revie…            3 Ampel schad… "Hier geht… LK-LUP-Verkehr     NA            
#>  5                264 Dieses Problem m… in_pr…            4 bauliche Ge… "Hier befi… LK-LUP-Verkehr     NA            
#>  6                268 <NA>              recei…            4 bauliche Ge… "redaktion… Bauamt - Goldberg… NA            
#>  7                213 <NA>              recei…          117 Wegereinigu… "redaktion… Forstamt           NA            
#>  8                292 <NA>              in_pr…            5 Beleuchtung… "Die Daten… Standardzuständig… NA            
#>  9                168 <NA>              recei…          145 Haltestelle… "redaktion… Verkehr LK Rostock NA            
#> 10                295 <NA>              revie…            2 Papierkorb/… "Die Daten… Standardzuständig… NA            
#> # ℹ 40 more rows
#> # ℹ 8 more variables: requested_datetime <chr>, updated_datetime <chr>, expected_datetime <lgl>, address <chr>,
#> #   adress_id <lgl>, media_url <chr>, zipcode <lgl>, geometry <POINT [°]>
```
…
``` r
o311_api("Cologne")
o311_request_all(max_pages = 2)
#> Simple feature collection with 200 features and 11 fields
#> Geometry type: POINT
#> Dimension:     XY
#> Bounding box:  xmin: 6.829709 ymin: 50.8518 xmax: 7.104094 ymax: 51.05517
#> Geodetic CRS:  WGS 84
#> # A tibble: 200 × 12
#>    service_request_id title         description address_string service_name requested_datetime updated_datetime status
#>    <chr>              <chr>         <chr>       <chr>          <chr>        <chr>              <chr>            <chr> 
#>  1 30194-2025         #30194-2025 … "Mülleimer… 51145 Köln - … Wilder Müll  2025-11-02T20:02:… 2025-11-03T12:3… closed
#>  2 30195-2025         #30195-2025 … "Gebündelt… 51065 Köln - … Wilder Müll  2025-11-02T20:09:… 2025-11-03T12:3… closed
#>  3 30196-2025         #30196-2025 … "Müllsack … 50679 Köln - … Wilder Müll  2025-11-02T20:24:… 2025-11-03T12:3… closed
#>  4 30197-2025         #30197-2025 … "Schlagloc… 51069 Köln - … Defekte Obe… 2025-11-02T21:35:… 2025-11-03T13:4… closed
#>  5 30198-2025         #30198-2025 … "Der Kleid… 51145 Köln - … Altkleiderc… 2025-11-02T22:52:… 2025-12-07T21:2… closed
#>  6 30199-2025         #30199-2025 … "Seid läng… 51107 Köln - … Defekte Obe… 2025-11-03T06:26:… 2025-11-04T09:1… closed
#>  7 30200-2025         #30200-2025 … "Die gesam… 50676 Köln - … Leuchtmitte… 2025-11-03T06:40:… 2025-12-05T21:2… closed
#>  8 30201-2025         #30201-2025 … "Großer Mü… 51103 Köln - … Wilder Müll  2025-11-03T07:45:… 2025-11-03T13:2… closed
#>  9 30202-2025         #30202-2025 … "Laut Schi… 50735 Köln - … Straßenbaus… 2025-11-03T08:13:… 2025-12-04T03:2… closed
#> 10 30203-2025         #30203-2025 … "Linksabbi… 51103 Köln - … Kfz-Ampel d… 2025-11-03T08:25:… 2025-12-03T18:2… closed
#> # ℹ 190 more rows
#> # ℹ 4 more variables: media_url <chr>, status_note <chr>, service_code <chr>, geometry <POINT [°]>
```
…
``` r
o311_api("Rostock, DE")
tickets <- o311_requests(keyword = "idea", max_requests = 50)
tickets
#> Simple feature collection with 50 features and 15 fields
#> Geometry type: POINT
#> Dimension:     XY
#> Bounding box:  xmin: 12.02807 ymin: 54.06587 xmax: 12.18612 ymax: 54.178
#> Geodetic CRS:  WGS 84
#> # A tibble: 50 × 16
#>    service_request_id status_notes      status service_code service_name description agency_responsible service_notice
#>                 <int> <chr>             <chr>         <int> <chr>        <chr>       <chr>              <lgl>         
#>  1              43372  <NA>             recei…          111 Ampelschalt… "redaktion… Tiefbauamt (Unter… NA            
#>  2              87716  <NA>             recei…          103 Haltestelle… "redaktion… Amt für Stadtentw… NA            
#>  3              65397  <NA>             recei…           89 Zugang roll… "redaktion… Tiefbauamt (Unter… NA            
#>  4              64554  <NA>             recei…           89 Zugang roll… "redaktion… Tiefbauamt (Unter… NA            
#>  5              76572  <NA>             revie…          111 Ampelschalt… "Der nächs… Tiefbauamt (Unter… NA            
#>  6              42031  <NA>             recei…          111 Ampelschalt… "redaktion… Tiefbauamt (Unter… NA            
#>  7              76573  <NA>             revie…          111 Ampelschalt… "Erster Ve… Tiefbauamt (Unter… NA            
#>  8              90650  <NA>             revie…          110 Spielplatz … "Hier soll… Amt für Kultur, D… NA            
#>  9              69444 "Danke für Ihren… in_pr…          110 Spielplatz … "wäre es m… Amt für Stadtgrün… NA            
#> 10              83507 ""                in_pr…          118 Schutzhütte… "Lichtenha… Tiefbauamt (Unter… NA            
#> # ℹ 40 more rows
#> # ℹ 8 more variables: requested_datetime <chr>, updated_datetime <chr>, expected_datetime <chr>, address <chr>,
#> #   adress_id <lgl>, media_url <chr>, zipcode <lgl>, geometry <POINT [°]>
```
…
